%YAML 1.1
%TAG !u! tag:unity3d.com,2011:
--- !u!29 &1
OcclusionCullingSettings:
  m_ObjectHideFlags: 0
  serializedVersion: 2
  m_OcclusionBakeSettings:
    smallestOccluder: 5
    smallestHole: 0.25
    backfaceThreshold: 100
  m_SceneGUID: 00000000000000000000000000000000
  m_OcclusionCullingData: {fileID: 0}
--- !u!104 &2
RenderSettings:
  m_ObjectHideFlags: 0
  serializedVersion: 9
  m_Fog: 0
  m_FogColor: {r: 0.5, g: 0.5, b: 0.5, a: 1}
  m_FogMode: 3
  m_FogDensity: 0.01
  m_LinearFogStart: 0
  m_LinearFogEnd: 300
  m_AmbientSkyColor: {r: 0.212, g: 0.227, b: 0.259, a: 1}
  m_AmbientEquatorColor: {r: 0.114, g: 0.125, b: 0.133, a: 1}
  m_AmbientGroundColor: {r: 0.047, g: 0.043, b: 0.035, a: 1}
  m_AmbientIntensity: 1
  m_AmbientMode: 0
  m_SubtractiveShadowColor: {r: 0.42, g: 0.478, b: 0.627, a: 1}
  m_SkyboxMaterial: {fileID: 10304, guid: 0000000000000000f000000000000000, type: 0}
  m_HaloStrength: 0.5
  m_FlareStrength: 1
  m_FlareFadeSpeed: 3
  m_HaloTexture: {fileID: 0}
  m_SpotCookie: {fileID: 10001, guid: 0000000000000000e000000000000000, type: 0}
  m_DefaultReflectionMode: 0
  m_DefaultReflectionResolution: 128
  m_ReflectionBounces: 1
  m_ReflectionIntensity: 1
  m_CustomReflection: {fileID: 0}
  m_Sun: {fileID: 0}
  m_IndirectSpecularColor: {r: 0.44657874, g: 0.49641258, b: 0.5748172, a: 1}
  m_UseRadianceAmbientProbe: 0
--- !u!157 &3
LightmapSettings:
  m_ObjectHideFlags: 0
  serializedVersion: 12
  m_GIWorkflowMode: 0
  m_GISettings:
    serializedVersion: 2
    m_BounceScale: 1
    m_IndirectOutputScale: 1
    m_AlbedoBoost: 1
    m_EnvironmentLightingMode: 0
    m_EnableBakedLightmaps: 1
    m_EnableRealtimeLightmaps: 1
  m_LightmapEditorSettings:
    serializedVersion: 12
    m_Resolution: 2
    m_BakeResolution: 40
    m_AtlasSize: 1024
    m_AO: 0
    m_AOMaxDistance: 1
    m_CompAOExponent: 1
    m_CompAOExponentDirect: 0
    m_ExtractAmbientOcclusion: 0
    m_Padding: 2
    m_LightmapParameters: {fileID: 0}
    m_LightmapsBakeMode: 1
    m_TextureCompression: 1
    m_FinalGather: 0
    m_FinalGatherFiltering: 1
    m_FinalGatherRayCount: 256
    m_ReflectionCompression: 2
    m_MixedBakeMode: 2
    m_BakeBackend: 0
    m_PVRSampling: 1
    m_PVRDirectSampleCount: 32
    m_PVRSampleCount: 500
    m_PVRBounces: 2
    m_PVREnvironmentSampleCount: 500
    m_PVREnvironmentReferencePointCount: 2048
    m_PVRFilteringMode: 2
    m_PVRDenoiserTypeDirect: 0
    m_PVRDenoiserTypeIndirect: 0
    m_PVRDenoiserTypeAO: 0
    m_PVRFilterTypeDirect: 0
    m_PVRFilterTypeIndirect: 0
    m_PVRFilterTypeAO: 0
    m_PVREnvironmentMIS: 0
    m_PVRCulling: 1
    m_PVRFilteringGaussRadiusDirect: 1
    m_PVRFilteringGaussRadiusIndirect: 5
    m_PVRFilteringGaussRadiusAO: 2
    m_PVRFilteringAtrousPositionSigmaDirect: 0.5
    m_PVRFilteringAtrousPositionSigmaIndirect: 2
    m_PVRFilteringAtrousPositionSigmaAO: 1
    m_ExportTrainingData: 0
    m_TrainingDataDestination: TrainingData
    m_LightProbeSampleCountMultiplier: 4
  m_LightingDataAsset: {fileID: 0}
  m_LightingSettings: {fileID: 4890085278179872738, guid: d0e3221d4504e7147b054d417437c922, type: 2}
--- !u!196 &4
NavMeshSettings:
  serializedVersion: 2
  m_ObjectHideFlags: 0
  m_BuildSettings:
    serializedVersion: 2
    agentTypeID: 0
    agentRadius: 0.5
    agentHeight: 2
    agentSlope: 45
    agentClimb: 0.4
    ledgeDropHeight: 0
    maxJumpAcrossDistance: 0
    minRegionArea: 2
    manualCellSize: 0
    cellSize: 0.16666667
    manualTileSize: 0
    tileSize: 256
    accuratePlacement: 0
    maxJobWorkers: 0
    preserveTilesOutsideBounds: 0
    debug:
      m_Flags: 0
  m_NavMeshData: {fileID: 0}
--- !u!1 &47132954
GameObject:
  m_ObjectHideFlags: 0
  m_CorrespondingSourceObject: {fileID: 0}
  m_PrefabInstance: {fileID: 0}
  m_PrefabAsset: {fileID: 0}
  serializedVersion: 6
  m_Component:
  - component: {fileID: 47132959}
  - component: {fileID: 47132958}
  - component: {fileID: 47132956}
  - component: {fileID: 47132955}
  m_Layer: 0
  m_Name: Main Camera
  m_TagString: MainCamera
  m_Icon: {fileID: 0}
  m_NavMeshLayer: 0
  m_StaticEditorFlags: 0
  m_IsActive: 1
--- !u!81 &47132955
AudioListener:
  m_ObjectHideFlags: 0
  m_CorrespondingSourceObject: {fileID: 0}
  m_PrefabInstance: {fileID: 0}
  m_PrefabAsset: {fileID: 0}
  m_GameObject: {fileID: 47132954}
  m_Enabled: 1
--- !u!124 &47132956
Behaviour:
  m_ObjectHideFlags: 0
  m_CorrespondingSourceObject: {fileID: 0}
  m_PrefabInstance: {fileID: 0}
  m_PrefabAsset: {fileID: 0}
  m_GameObject: {fileID: 47132954}
  m_Enabled: 1
--- !u!20 &47132958
Camera:
  m_ObjectHideFlags: 0
  m_CorrespondingSourceObject: {fileID: 0}
  m_PrefabInstance: {fileID: 0}
  m_PrefabAsset: {fileID: 0}
  m_GameObject: {fileID: 47132954}
  m_Enabled: 1
  serializedVersion: 2
  m_ClearFlags: 1
  m_BackGroundColor: {r: 0.19215687, g: 0.3019608, b: 0.4745098, a: 0}
  m_projectionMatrixMode: 1
  m_GateFitMode: 2
  m_FOVAxisMode: 0
  m_SensorSize: {x: 36, y: 24}
  m_LensShift: {x: 0, y: 0}
  m_FocalLength: 50
  m_NormalizedViewPortRect:
    serializedVersion: 2
    x: 0
    y: 0
    width: 1
    height: 1
  near clip plane: 0.3
  far clip plane: 1000
  field of view: 60
  orthographic: 0
  orthographic size: 5
  m_Depth: -1
  m_CullingMask:
    serializedVersion: 2
    m_Bits: 4294967295
  m_RenderingPath: -1
  m_TargetTexture: {fileID: 0}
  m_TargetDisplay: 0
  m_TargetEye: 3
  m_HDR: 1
  m_AllowMSAA: 1
  m_AllowDynamicResolution: 0
  m_ForceIntoRT: 0
  m_OcclusionCulling: 1
  m_StereoConvergence: 10
  m_StereoSeparation: 0.022
--- !u!4 &47132959
Transform:
  m_ObjectHideFlags: 0
  m_CorrespondingSourceObject: {fileID: 0}
  m_PrefabInstance: {fileID: 0}
  m_PrefabAsset: {fileID: 0}
  m_GameObject: {fileID: 47132954}
  m_LocalRotation: {x: 0, y: 0, z: 0, w: 1}
  m_LocalPosition: {x: 0, y: 1, z: -10}
  m_LocalScale: {x: 1, y: 1, z: 1}
  m_Children: []
  m_Father: {fileID: 0}
  m_RootOrder: 0
  m_LocalEulerAnglesHint: {x: 0, y: 0, z: 0}
--- !u!1001 &109596946
PrefabInstance:
  m_ObjectHideFlags: 0
  serializedVersion: 2
  m_Modification:
    m_TransformParent: {fileID: 0}
    m_Modifications:
    - target: {fileID: 108976, guid: 89628d1fa4c1244408401deb6dcd80c5, type: 3}
      propertyPath: m_Name
      value: Clifftile Straight 2 (1)
      objectReference: {fileID: 0}
    - target: {fileID: 411954, guid: 89628d1fa4c1244408401deb6dcd80c5, type: 3}
      propertyPath: m_RootOrder
      value: 4
      objectReference: {fileID: 0}
    - target: {fileID: 411954, guid: 89628d1fa4c1244408401deb6dcd80c5, type: 3}
      propertyPath: m_LocalPosition.x
      value: -17.37
      objectReference: {fileID: 0}
    - target: {fileID: 411954, guid: 89628d1fa4c1244408401deb6dcd80c5, type: 3}
      propertyPath: m_LocalPosition.y
      value: 0.19
      objectReference: {fileID: 0}
    - target: {fileID: 411954, guid: 89628d1fa4c1244408401deb6dcd80c5, type: 3}
      propertyPath: m_LocalPosition.z
      value: 0
      objectReference: {fileID: 0}
    - target: {fileID: 411954, guid: 89628d1fa4c1244408401deb6dcd80c5, type: 3}
      propertyPath: m_LocalRotation.w
      value: 1
      objectReference: {fileID: 0}
    - target: {fileID: 411954, guid: 89628d1fa4c1244408401deb6dcd80c5, type: 3}
      propertyPath: m_LocalRotation.x
      value: 0.0000000218557
      objectReference: {fileID: 0}
    - target: {fileID: 411954, guid: 89628d1fa4c1244408401deb6dcd80c5, type: 3}
      propertyPath: m_LocalRotation.y
      value: 0
      objectReference: {fileID: 0}
    - target: {fileID: 411954, guid: 89628d1fa4c1244408401deb6dcd80c5, type: 3}
      propertyPath: m_LocalRotation.z
      value: -0
      objectReference: {fileID: 0}
    m_RemovedComponents: []
  m_SourcePrefab: {fileID: 100100000, guid: 89628d1fa4c1244408401deb6dcd80c5, type: 3}
--- !u!1001 &255692218
PrefabInstance:
  m_ObjectHideFlags: 0
  serializedVersion: 2
  m_Modification:
    m_TransformParent: {fileID: 0}
    m_Modifications:
    - target: {fileID: 411954, guid: 89628d1fa4c1244408401deb6dcd80c5, type: 3}
      propertyPath: m_RootOrder
      value: 3
      objectReference: {fileID: 0}
    - target: {fileID: 411954, guid: 89628d1fa4c1244408401deb6dcd80c5, type: 3}
      propertyPath: m_LocalPosition.x
      value: 0
      objectReference: {fileID: 0}
    - target: {fileID: 411954, guid: 89628d1fa4c1244408401deb6dcd80c5, type: 3}
      propertyPath: m_LocalPosition.y
      value: 0.18
      objectReference: {fileID: 0}
    - target: {fileID: 411954, guid: 89628d1fa4c1244408401deb6dcd80c5, type: 3}
      propertyPath: m_LocalPosition.z
      value: 0
      objectReference: {fileID: 0}
    - target: {fileID: 411954, guid: 89628d1fa4c1244408401deb6dcd80c5, type: 3}
      propertyPath: m_LocalRotation.w
      value: 1
      objectReference: {fileID: 0}
    - target: {fileID: 411954, guid: 89628d1fa4c1244408401deb6dcd80c5, type: 3}
      propertyPath: m_LocalRotation.x
      value: 0.0000000218557
      objectReference: {fileID: 0}
    - target: {fileID: 411954, guid: 89628d1fa4c1244408401deb6dcd80c5, type: 3}
      propertyPath: m_LocalRotation.y
      value: 0
      objectReference: {fileID: 0}
    - target: {fileID: 411954, guid: 89628d1fa4c1244408401deb6dcd80c5, type: 3}
      propertyPath: m_LocalRotation.z
      value: -0
      objectReference: {fileID: 0}
    m_RemovedComponents: []
  m_SourcePrefab: {fileID: 100100000, guid: 89628d1fa4c1244408401deb6dcd80c5, type: 3}
--- !u!1001 &392652034
PrefabInstance:
  m_ObjectHideFlags: 0
  serializedVersion: 2
  m_Modification:
    m_TransformParent: {fileID: 0}
    m_Modifications:
    - target: {fileID: 4050830807347228, guid: 797710b9cddb52647aa5e2345461502f, type: 3}
      propertyPath: m_RootOrder
      value: 8
      objectReference: {fileID: 0}
    - target: {fileID: 4050830807347228, guid: 797710b9cddb52647aa5e2345461502f, type: 3}
      propertyPath: m_LocalPosition.x
      value: -0.94
      objectReference: {fileID: 0}
    - target: {fileID: 4050830807347228, guid: 797710b9cddb52647aa5e2345461502f, type: 3}
      propertyPath: m_LocalPosition.y
      value: 0.19
      objectReference: {fileID: 0}
    - target: {fileID: 4050830807347228, guid: 797710b9cddb52647aa5e2345461502f, type: 3}
      propertyPath: m_LocalPosition.z
      value: -29.84
      objectReference: {fileID: 0}
    - target: {fileID: 4050830807347228, guid: 797710b9cddb52647aa5e2345461502f, type: 3}
      propertyPath: m_LocalRotation.w
      value: 0.00000058114523
      objectReference: {fileID: 0}
    - target: {fileID: 4050830807347228, guid: 797710b9cddb52647aa5e2345461502f, type: 3}
      propertyPath: m_LocalRotation.x
      value: 1.2597147e-14
      objectReference: {fileID: 0}
    - target: {fileID: 4050830807347228, guid: 797710b9cddb52647aa5e2345461502f, type: 3}
      propertyPath: m_LocalRotation.y
      value: 1
      objectReference: {fileID: 0}
    - target: {fileID: 4050830807347228, guid: 797710b9cddb52647aa5e2345461502f, type: 3}
      propertyPath: m_LocalRotation.z
      value: 0.000000021855701
      objectReference: {fileID: 0}
    - target: {fileID: 4050830807347228, guid: 797710b9cddb52647aa5e2345461502f, type: 3}
      propertyPath: m_LocalEulerAnglesHint.y
      value: 180.00002
      objectReference: {fileID: 0}
    m_RemovedComponents: []
  m_SourcePrefab: {fileID: 100100000, guid: 797710b9cddb52647aa5e2345461502f, type: 3}
--- !u!1001 &606075772
PrefabInstance:
  m_ObjectHideFlags: 0
  serializedVersion: 2
  m_Modification:
    m_TransformParent: {fileID: 0}
    m_Modifications:
    - target: {fileID: 114378, guid: 76e8f3483e59e9245a3d8a6ccbed01ac, type: 3}
      propertyPath: m_Name
      value: Rocktile Straight 1 (1)
      objectReference: {fileID: 0}
    - target: {fileID: 409734, guid: 76e8f3483e59e9245a3d8a6ccbed01ac, type: 3}
      propertyPath: m_RootOrder
      value: 11
      objectReference: {fileID: 0}
    - target: {fileID: 409734, guid: 76e8f3483e59e9245a3d8a6ccbed01ac, type: 3}
      propertyPath: m_LocalPosition.x
      value: -8.94
      objectReference: {fileID: 0}
    - target: {fileID: 409734, guid: 76e8f3483e59e9245a3d8a6ccbed01ac, type: 3}
      propertyPath: m_LocalPosition.y
      value: -1.5
      objectReference: {fileID: 0}
    - target: {fileID: 409734, guid: 76e8f3483e59e9245a3d8a6ccbed01ac, type: 3}
      propertyPath: m_LocalPosition.z
      value: 0
      objectReference: {fileID: 0}
    - target: {fileID: 409734, guid: 76e8f3483e59e9245a3d8a6ccbed01ac, type: 3}
      propertyPath: m_LocalRotation.w
      value: 0.9966868
      objectReference: {fileID: 0}
    - target: {fileID: 409734, guid: 76e8f3483e59e9245a3d8a6ccbed01ac, type: 3}
      propertyPath: m_LocalRotation.x
      value: 0.000000021783286
      objectReference: {fileID: 0}
    - target: {fileID: 409734, guid: 76e8f3483e59e9245a3d8a6ccbed01ac, type: 3}
      propertyPath: m_LocalRotation.y
      value: 0.0000000017776467
      objectReference: {fileID: 0}
    - target: {fileID: 409734, guid: 76e8f3483e59e9245a3d8a6ccbed01ac, type: 3}
      propertyPath: m_LocalRotation.z
      value: -0.081335664
      objectReference: {fileID: 0}
    - target: {fileID: 409734, guid: 76e8f3483e59e9245a3d8a6ccbed01ac, type: 3}
      propertyPath: m_LocalEulerAnglesHint.z
      value: -9.331
      objectReference: {fileID: 0}
    m_RemovedComponents: []
  m_SourcePrefab: {fileID: 100100000, guid: 76e8f3483e59e9245a3d8a6ccbed01ac, type: 3}
--- !u!1001 &720076344
PrefabInstance:
  m_ObjectHideFlags: 0
  serializedVersion: 2
  m_Modification:
    m_TransformParent: {fileID: 0}
    m_Modifications:
    - target: {fileID: 458554, guid: 62e60247eb7840d418f372425884878d, type: 3}
      propertyPath: m_RootOrder
      value: 5
      objectReference: {fileID: 0}
    - target: {fileID: 458554, guid: 62e60247eb7840d418f372425884878d, type: 3}
      propertyPath: m_LocalPosition.x
      value: -37.28
      objectReference: {fileID: 0}
    - target: {fileID: 458554, guid: 62e60247eb7840d418f372425884878d, type: 3}
      propertyPath: m_LocalPosition.y
      value: 0.21
      objectReference: {fileID: 0}
    - target: {fileID: 458554, guid: 62e60247eb7840d418f372425884878d, type: 3}
      propertyPath: m_LocalPosition.z
      value: 0
      objectReference: {fileID: 0}
    - target: {fileID: 458554, guid: 62e60247eb7840d418f372425884878d, type: 3}
      propertyPath: m_LocalRotation.w
      value: 0.704179
      objectReference: {fileID: 0}
    - target: {fileID: 458554, guid: 62e60247eb7840d418f372425884878d, type: 3}
      propertyPath: m_LocalRotation.x
      value: 0.000000015390324
      objectReference: {fileID: 0}
    - target: {fileID: 458554, guid: 62e60247eb7840d418f372425884878d, type: 3}
      propertyPath: m_LocalRotation.y
      value: -0.71002257
      objectReference: {fileID: 0}
    - target: {fileID: 458554, guid: 62e60247eb7840d418f372425884878d, type: 3}
      propertyPath: m_LocalRotation.z
      value: -0.00000001551804
      objectReference: {fileID: 0}
    - target: {fileID: 458554, guid: 62e60247eb7840d418f372425884878d, type: 3}
      propertyPath: m_LocalEulerAnglesHint.y
      value: -90.47401
      objectReference: {fileID: 0}
    m_RemovedComponents: []
  m_SourcePrefab: {fileID: 100100000, guid: 62e60247eb7840d418f372425884878d, type: 3}
--- !u!1001 &808538451
PrefabInstance:
  m_ObjectHideFlags: 0
  serializedVersion: 2
  m_Modification:
    m_TransformParent: {fileID: 0}
    m_Modifications:
    - target: {fileID: 409734, guid: 76e8f3483e59e9245a3d8a6ccbed01ac, type: 3}
      propertyPath: m_RootOrder
      value: 10
      objectReference: {fileID: 0}
    - target: {fileID: 409734, guid: 76e8f3483e59e9245a3d8a6ccbed01ac, type: 3}
      propertyPath: m_LocalPosition.x
      value: 0.25
      objectReference: {fileID: 0}
    - target: {fileID: 409734, guid: 76e8f3483e59e9245a3d8a6ccbed01ac, type: 3}
      propertyPath: m_LocalPosition.y
      value: 0
      objectReference: {fileID: 0}
    - target: {fileID: 409734, guid: 76e8f3483e59e9245a3d8a6ccbed01ac, type: 3}
      propertyPath: m_LocalPosition.z
      value: 1.16
      objectReference: {fileID: 0}
    - target: {fileID: 409734, guid: 76e8f3483e59e9245a3d8a6ccbed01ac, type: 3}
      propertyPath: m_LocalRotation.w
      value: 1
      objectReference: {fileID: 0}
    - target: {fileID: 409734, guid: 76e8f3483e59e9245a3d8a6ccbed01ac, type: 3}
      propertyPath: m_LocalRotation.x
      value: 0.0000000218557
      objectReference: {fileID: 0}
    - target: {fileID: 409734, guid: 76e8f3483e59e9245a3d8a6ccbed01ac, type: 3}
      propertyPath: m_LocalRotation.y
      value: -1.45068e-15
      objectReference: {fileID: 0}
    - target: {fileID: 409734, guid: 76e8f3483e59e9245a3d8a6ccbed01ac, type: 3}
      propertyPath: m_LocalRotation.z
      value: 0.00000001490115
      objectReference: {fileID: 0}
    m_RemovedComponents: []
  m_SourcePrefab: {fileID: 100100000, guid: 76e8f3483e59e9245a3d8a6ccbed01ac, type: 3}
--- !u!1001 &937446002
PrefabInstance:
  m_ObjectHideFlags: 0
  serializedVersion: 2
  m_Modification:
    m_TransformParent: {fileID: 0}
    m_Modifications:
    - target: {fileID: 4585168920061040, guid: 89d02998542d0c24ea73447f89e6304f, type: 3}
      propertyPath: m_RootOrder
      value: 1
      objectReference: {fileID: 0}
    - target: {fileID: 4585168920061040, guid: 89d02998542d0c24ea73447f89e6304f, type: 3}
      propertyPath: m_LocalPosition.x
      value: -17.3
      objectReference: {fileID: 0}
    - target: {fileID: 4585168920061040, guid: 89d02998542d0c24ea73447f89e6304f, type: 3}
      propertyPath: m_LocalPosition.y
      value: 0.17
      objectReference: {fileID: 0}
    - target: {fileID: 4585168920061040, guid: 89d02998542d0c24ea73447f89e6304f, type: 3}
      propertyPath: m_LocalPosition.z
      value: -29.92
      objectReference: {fileID: 0}
    - target: {fileID: 4585168920061040, guid: 89d02998542d0c24ea73447f89e6304f, type: 3}
      propertyPath: m_LocalRotation.w
      value: 0.00000058114523
      objectReference: {fileID: 0}
    - target: {fileID: 4585168920061040, guid: 89d02998542d0c24ea73447f89e6304f, type: 3}
      propertyPath: m_LocalRotation.x
      value: 1.2597147e-14
      objectReference: {fileID: 0}
    - target: {fileID: 4585168920061040, guid: 89d02998542d0c24ea73447f89e6304f, type: 3}
      propertyPath: m_LocalRotation.y
      value: 1
      objectReference: {fileID: 0}
    - target: {fileID: 4585168920061040, guid: 89d02998542d0c24ea73447f89e6304f, type: 3}
      propertyPath: m_LocalRotation.z
      value: 0.000000021855701
      objectReference: {fileID: 0}
    - target: {fileID: 4585168920061040, guid: 89d02998542d0c24ea73447f89e6304f, type: 3}
      propertyPath: m_LocalEulerAnglesHint.y
      value: 180.00002
      objectReference: {fileID: 0}
    m_RemovedComponents: []
  m_SourcePrefab: {fileID: 100100000, guid: 89d02998542d0c24ea73447f89e6304f, type: 3}
--- !u!1 &945633735
GameObject:
  m_ObjectHideFlags: 0
  m_CorrespondingSourceObject: {fileID: 0}
  m_PrefabInstance: {fileID: 0}
  m_PrefabAsset: {fileID: 0}
  serializedVersion: 6
  m_Component:
  - component: {fileID: 945633739}
  - component: {fileID: 945633738}
  - component: {fileID: 945633737}
  - component: {fileID: 945633736}
  m_Layer: 0
  m_Name: Plane
  m_TagString: Untagged
  m_Icon: {fileID: 0}
  m_NavMeshLayer: 0
  m_StaticEditorFlags: 0
  m_IsActive: 1
--- !u!23 &945633736
MeshRenderer:
  m_ObjectHideFlags: 0
  m_CorrespondingSourceObject: {fileID: 0}
  m_PrefabInstance: {fileID: 0}
  m_PrefabAsset: {fileID: 0}
  m_GameObject: {fileID: 945633735}
  m_Enabled: 1
  m_CastShadows: 1
  m_ReceiveShadows: 1
  m_DynamicOccludee: 1
  m_MotionVectors: 1
  m_LightProbeUsage: 1
  m_ReflectionProbeUsage: 1
  m_RayTracingMode: 2
  m_RayTraceProcedural: 0
  m_RenderingLayerMask: 1
  m_RendererPriority: 0
  m_Materials:
  - {fileID: 10303, guid: 0000000000000000f000000000000000, type: 0}
  m_StaticBatchInfo:
    firstSubMesh: 0
    subMeshCount: 0
  m_StaticBatchRoot: {fileID: 0}
  m_ProbeAnchor: {fileID: 0}
  m_LightProbeVolumeOverride: {fileID: 0}
  m_ScaleInLightmap: 1
  m_ReceiveGI: 1
  m_PreserveUVs: 1
  m_IgnoreNormalsForChartDetection: 0
  m_ImportantGI: 0
  m_StitchLightmapSeams: 1
  m_SelectedEditorRenderState: 3
  m_MinimumChartSize: 4
  m_AutoUVMaxDistance: 0.5
  m_AutoUVMaxAngle: 89
  m_LightmapParameters: {fileID: 0}
  m_SortingLayerID: 0
  m_SortingLayer: 0
  m_SortingOrder: 0
  m_AdditionalVertexStreams: {fileID: 0}
--- !u!64 &945633737
MeshCollider:
  m_ObjectHideFlags: 0
  m_CorrespondingSourceObject: {fileID: 0}
  m_PrefabInstance: {fileID: 0}
  m_PrefabAsset: {fileID: 0}
  m_GameObject: {fileID: 945633735}
  m_Material: {fileID: 0}
  m_IsTrigger: 0
  m_Enabled: 1
  serializedVersion: 4
  m_Convex: 0
  m_CookingOptions: 30
  m_Mesh: {fileID: 10209, guid: 0000000000000000e000000000000000, type: 0}
--- !u!33 &945633738
MeshFilter:
  m_ObjectHideFlags: 0
  m_CorrespondingSourceObject: {fileID: 0}
  m_PrefabInstance: {fileID: 0}
  m_PrefabAsset: {fileID: 0}
  m_GameObject: {fileID: 945633735}
  m_Mesh: {fileID: 10209, guid: 0000000000000000e000000000000000, type: 0}
--- !u!4 &945633739
Transform:
  m_ObjectHideFlags: 0
  m_CorrespondingSourceObject: {fileID: 0}
  m_PrefabInstance: {fileID: 0}
  m_PrefabAsset: {fileID: 0}
  m_GameObject: {fileID: 945633735}
  m_LocalRotation: {x: 0, y: 0, z: 0, w: 1}
  m_LocalPosition: {x: 0, y: 0, z: 0}
  m_LocalScale: {x: 100, y: 100, z: 100}
  m_Children: []
  m_Father: {fileID: 0}
  m_RootOrder: 14
  m_LocalEulerAnglesHint: {x: 0, y: 0, z: 0}
--- !u!1 &1175189512
GameObject:
  m_ObjectHideFlags: 0
  m_CorrespondingSourceObject: {fileID: 0}
  m_PrefabInstance: {fileID: 0}
  m_PrefabAsset: {fileID: 0}
  serializedVersion: 6
  m_Component:
  - component: {fileID: 1175189514}
  - component: {fileID: 1175189513}
  m_Layer: 0
  m_Name: Directional Light
  m_TagString: Untagged
  m_Icon: {fileID: 0}
  m_NavMeshLayer: 0
  m_StaticEditorFlags: 0
  m_IsActive: 1
--- !u!108 &1175189513
Light:
  m_ObjectHideFlags: 0
  m_CorrespondingSourceObject: {fileID: 0}
  m_PrefabInstance: {fileID: 0}
  m_PrefabAsset: {fileID: 0}
  m_GameObject: {fileID: 1175189512}
  m_Enabled: 1
  serializedVersion: 10
  m_Type: 1
  m_Shape: 0
  m_Color: {r: 1, g: 0.95686275, b: 0.8392157, a: 1}
  m_Intensity: 1
  m_Range: 10
  m_SpotAngle: 30
  m_InnerSpotAngle: 21.80208
  m_CookieSize: 10
  m_Shadows:
    m_Type: 2
    m_Resolution: -1
    m_CustomResolution: -1
    m_Strength: 1
    m_Bias: 0.05
    m_NormalBias: 0.4
    m_NearPlane: 0.2
    m_CullingMatrixOverride:
      e00: 1
      e01: 0
      e02: 0
      e03: 0
      e10: 0
      e11: 1
      e12: 0
      e13: 0
      e20: 0
      e21: 0
      e22: 1
      e23: 0
      e30: 0
      e31: 0
      e32: 0
      e33: 1
    m_UseCullingMatrixOverride: 0
  m_Cookie: {fileID: 0}
  m_DrawHalo: 0
  m_Flare: {fileID: 0}
  m_RenderMode: 0
  m_CullingMask:
    serializedVersion: 2
    m_Bits: 4294967295
  m_RenderingLayerMask: 1
  m_Lightmapping: 4
  m_LightShadowCasterMode: 0
  m_AreaSize: {x: 1, y: 1}
  m_BounceIntensity: 1
  m_ColorTemperature: 6570
  m_UseColorTemperature: 0
  m_BoundingSphereOverride: {x: 0, y: 0, z: 0, w: 0}
  m_UseBoundingSphereOverride: 0
  m_UseViewFrustumForShadowCasterCull: 1
  m_ShadowRadius: 0
  m_ShadowAngle: 0
--- !u!4 &1175189514
Transform:
  m_ObjectHideFlags: 0
  m_CorrespondingSourceObject: {fileID: 0}
  m_PrefabInstance: {fileID: 0}
  m_PrefabAsset: {fileID: 0}
  m_GameObject: {fileID: 1175189512}
  m_LocalRotation: {x: 0.40821788, y: -0.23456968, z: 0.10938163, w: 0.8754261}
  m_LocalPosition: {x: 0, y: 3, z: 0}
  m_LocalScale: {x: 1, y: 1, z: 1}
  m_Children: []
  m_Father: {fileID: 0}
  m_RootOrder: 2
  m_LocalEulerAnglesHint: {x: 50, y: -30, z: 0}
--- !u!1001 &1243794822
PrefabInstance:
  m_ObjectHideFlags: 0
  serializedVersion: 2
  m_Modification:
    m_TransformParent: {fileID: 0}
    m_Modifications:
    - target: {fileID: 157830, guid: 62e60247eb7840d418f372425884878d, type: 3}
      propertyPath: m_Name
      value: Clifftile Convex (1)
      objectReference: {fileID: 0}
    - target: {fileID: 458554, guid: 62e60247eb7840d418f372425884878d, type: 3}
      propertyPath: m_RootOrder
      value: 9
      objectReference: {fileID: 0}
    - target: {fileID: 458554, guid: 62e60247eb7840d418f372425884878d, type: 3}
      propertyPath: m_LocalPosition.x
      value: 9.43
      objectReference: {fileID: 0}
    - target: {fileID: 458554, guid: 62e60247eb7840d418f372425884878d, type: 3}
      propertyPath: m_LocalPosition.y
      value: 0.15
      objectReference: {fileID: 0}
    - target: {fileID: 458554, guid: 62e60247eb7840d418f372425884878d, type: 3}
      propertyPath: m_LocalPosition.z
      value: -9.95
      objectReference: {fileID: 0}
    - target: {fileID: 458554, guid: 62e60247eb7840d418f372425884878d, type: 3}
      propertyPath: m_LocalRotation.w
      value: 1
      objectReference: {fileID: 0}
    - target: {fileID: 458554, guid: 62e60247eb7840d418f372425884878d, type: 3}
      propertyPath: m_LocalRotation.x
      value: 0.0000000218557
      objectReference: {fileID: 0}
    - target: {fileID: 458554, guid: 62e60247eb7840d418f372425884878d, type: 3}
      propertyPath: m_LocalRotation.y
      value: 0
      objectReference: {fileID: 0}
    - target: {fileID: 458554, guid: 62e60247eb7840d418f372425884878d, type: 3}
      propertyPath: m_LocalRotation.z
      value: -0
      objectReference: {fileID: 0}
    m_RemovedComponents: []
  m_SourcePrefab: {fileID: 100100000, guid: 62e60247eb7840d418f372425884878d, type: 3}
--- !u!1001 &1291368585
PrefabInstance:
  m_ObjectHideFlags: 0
  serializedVersion: 2
  m_Modification:
    m_TransformParent: {fileID: 0}
    m_Modifications:
    - target: {fileID: 4386489278579486, guid: ae70de9015df2a942a144182d5917ae1, type: 3}
      propertyPath: m_RootOrder
      value: 7
      objectReference: {fileID: 0}
    - target: {fileID: 4386489278579486, guid: ae70de9015df2a942a144182d5917ae1, type: 3}
      propertyPath: m_LocalPosition.x
      value: -17.12
      objectReference: {fileID: 0}
    - target: {fileID: 4386489278579486, guid: ae70de9015df2a942a144182d5917ae1, type: 3}
      propertyPath: m_LocalPosition.y
      value: 0.2
      objectReference: {fileID: 0}
    - target: {fileID: 4386489278579486, guid: ae70de9015df2a942a144182d5917ae1, type: 3}
      propertyPath: m_LocalPosition.z
      value: -29.86
      objectReference: {fileID: 0}
    - target: {fileID: 4386489278579486, guid: ae70de9015df2a942a144182d5917ae1, type: 3}
      propertyPath: m_LocalRotation.w
      value: 0.7071068
      objectReference: {fileID: 0}
    - target: {fileID: 4386489278579486, guid: ae70de9015df2a942a144182d5917ae1, type: 3}
      propertyPath: m_LocalRotation.x
      value: 0.000000015454315
      objectReference: {fileID: 0}
    - target: {fileID: 4386489278579486, guid: ae70de9015df2a942a144182d5917ae1, type: 3}
      propertyPath: m_LocalRotation.y
      value: 0.70710677
      objectReference: {fileID: 0}
    - target: {fileID: 4386489278579486, guid: ae70de9015df2a942a144182d5917ae1, type: 3}
      propertyPath: m_LocalRotation.z
      value: 0.000000015454313
      objectReference: {fileID: 0}
    - target: {fileID: 4386489278579486, guid: ae70de9015df2a942a144182d5917ae1, type: 3}
      propertyPath: m_LocalEulerAnglesHint.y
      value: 90.00001
      objectReference: {fileID: 0}
    m_RemovedComponents: []
  m_SourcePrefab: {fileID: 100100000, guid: ae70de9015df2a942a144182d5917ae1, type: 3}
--- !u!1001 &1721197033
PrefabInstance:
  m_ObjectHideFlags: 0
  serializedVersion: 2
  m_Modification:
    m_TransformParent: {fileID: 0}
    m_Modifications:
    - target: {fileID: 421152, guid: 9447ff023d0aaf84f85f4d030320cd33, type: 3}
      propertyPath: m_RootOrder
      value: 12
      objectReference: {fileID: 0}
    - target: {fileID: 421152, guid: 9447ff023d0aaf84f85f4d030320cd33, type: 3}
      propertyPath: m_LocalPosition.x
      value: -16.27
      objectReference: {fileID: 0}
    - target: {fileID: 421152, guid: 9447ff023d0aaf84f85f4d030320cd33, type: 3}
      propertyPath: m_LocalPosition.y
      value: 0
      objectReference: {fileID: 0}
    - target: {fileID: 421152, guid: 9447ff023d0aaf84f85f4d030320cd33, type: 3}
      propertyPath: m_LocalPosition.z
      value: 0
      objectReference: {fileID: 0}
    - target: {fileID: 421152, guid: 9447ff023d0aaf84f85f4d030320cd33, type: 3}
      propertyPath: m_LocalRotation.w
      value: 1
      objectReference: {fileID: 0}
    - target: {fileID: 421152, guid: 9447ff023d0aaf84f85f4d030320cd33, type: 3}
      propertyPath: m_LocalRotation.x
      value: 0.0000000218557
      objectReference: {fileID: 0}
    - target: {fileID: 421152, guid: 9447ff023d0aaf84f85f4d030320cd33, type: 3}
      propertyPath: m_LocalRotation.y
      value: 0
      objectReference: {fileID: 0}
    - target: {fileID: 421152, guid: 9447ff023d0aaf84f85f4d030320cd33, type: 3}
      propertyPath: m_LocalRotation.z
      value: -0
      objectReference: {fileID: 0}
    m_RemovedComponents: []
  m_SourcePrefab: {fileID: 100100000, guid: 9447ff023d0aaf84f85f4d030320cd33, type: 3}
--- !u!1001 &1987691404
PrefabInstance:
  m_ObjectHideFlags: 0
  serializedVersion: 2
  m_Modification:
    m_TransformParent: {fileID: 0}
    m_Modifications:
    - target: {fileID: 108976, guid: 89628d1fa4c1244408401deb6dcd80c5, type: 3}
      propertyPath: m_Name
      value: Clifftile Straight 2 (2)
      objectReference: {fileID: 0}
    - target: {fileID: 411954, guid: 89628d1fa4c1244408401deb6dcd80c5, type: 3}
      propertyPath: m_RootOrder
      value: 6
      objectReference: {fileID: 0}
    - target: {fileID: 411954, guid: 89628d1fa4c1244408401deb6dcd80c5, type: 3}
      propertyPath: m_LocalPosition.x
      value: -47.09
      objectReference: {fileID: 0}
    - target: {fileID: 411954, guid: 89628d1fa4c1244408401deb6dcd80c5, type: 3}
      propertyPath: m_LocalPosition.y
      value: 0.22
      objectReference: {fileID: 0}
    - target: {fileID: 411954, guid: 89628d1fa4c1244408401deb6dcd80c5, type: 3}
      propertyPath: m_LocalPosition.z
      value: -9.93
      objectReference: {fileID: 0}
    - target: {fileID: 411954, guid: 89628d1fa4c1244408401deb6dcd80c5, type: 3}
      propertyPath: m_LocalRotation.w
      value: 0.70710653
      objectReference: {fileID: 0}
    - target: {fileID: 411954, guid: 89628d1fa4c1244408401deb6dcd80c5, type: 3}
      propertyPath: m_LocalRotation.x
      value: 0.000000015454308
      objectReference: {fileID: 0}
    - target: {fileID: 411954, guid: 89628d1fa4c1244408401deb6dcd80c5, type: 3}
      propertyPath: m_LocalRotation.y
      value: -0.70710707
      objectReference: {fileID: 0}
    - target: {fileID: 411954, guid: 89628d1fa4c1244408401deb6dcd80c5, type: 3}
      propertyPath: m_LocalRotation.z
      value: -0.000000015454319
      objectReference: {fileID: 0}
    - target: {fileID: 411954, guid: 89628d1fa4c1244408401deb6dcd80c5, type: 3}
      propertyPath: m_LocalEulerAnglesHint.y
      value: -90.00001
      objectReference: {fileID: 0}
    m_RemovedComponents: []
  m_SourcePrefab: {fileID: 100100000, guid: 89628d1fa4c1244408401deb6dcd80c5, type: 3}
--- !u!1001 &2037408560
PrefabInstance:
  m_ObjectHideFlags: 0
  serializedVersion: 2
  m_Modification:
    m_TransformParent: {fileID: 0}
    m_Modifications:
    - target: {fileID: 407342, guid: 7b6003e95a5e8044389546d65fb058ec, type: 3}
      propertyPath: m_RootOrder
      value: 13
      objectReference: {fileID: 0}
    - target: {fileID: 407342, guid: 7b6003e95a5e8044389546d65fb058ec, type: 3}
      propertyPath: m_LocalPosition.x
      value: 7.02
      objectReference: {fileID: 0}
    - target: {fileID: 407342, guid: 7b6003e95a5e8044389546d65fb058ec, type: 3}
      propertyPath: m_LocalPosition.y
      value: 0
      objectReference: {fileID: 0}
    - target: {fileID: 407342, guid: 7b6003e95a5e8044389546d65fb058ec, type: 3}
      propertyPath: m_LocalPosition.z
      value: -11.15
      objectReference: {fileID: 0}
    - target: {fileID: 407342, guid: 7b6003e95a5e8044389546d65fb058ec, type: 3}
      propertyPath: m_LocalRotation.w
      value: 0.6087617
      objectReference: {fileID: 0}
    - target: {fileID: 407342, guid: 7b6003e95a5e8044389546d65fb058ec, type: 3}
      propertyPath: m_LocalRotation.x
      value: 0.000000013304914
      objectReference: {fileID: 0}
    - target: {fileID: 407342, guid: 7b6003e95a5e8044389546d65fb058ec, type: 3}
      propertyPath: m_LocalRotation.y
      value: 0.7933532
      objectReference: {fileID: 0}
    - target: {fileID: 407342, guid: 7b6003e95a5e8044389546d65fb058ec, type: 3}
      propertyPath: m_LocalRotation.z
      value: 0.000000017339287
      objectReference: {fileID: 0}
    - target: {fileID: 407342, guid: 7b6003e95a5e8044389546d65fb058ec, type: 3}
      propertyPath: m_LocalEulerAnglesHint.y
      value: 105.00001
      objectReference: {fileID: 0}
    m_RemovedComponents: []
  m_SourcePrefab: {fileID: 100100000, guid: 7b6003e95a5e8044389546d65fb058ec, type: 3}
